<svg width="50" height="50" viewBox="0 0 50 50" fill="none" xmlns="http://www.w3.org/2000/svg">
<circle cx="25" cy="25" r="25" fill="#333333"/>
<path fill-rule="evenodd" clip-rule="evenodd" d="M27.5 15.75C27.5 17.2688 26.2688 18.5 24.75 18.5C23.2312 18.5 22 17.2688 22 15.75C22 14.2312 23.2312 13 24.75 13C26.2688 13 27.5 14.2312 27.5 15.75ZM27 21H23H21V22H23V37H21V38H23H27H29V37H27V21Z" fill="white"/>
</svg>
